{
  "type": "minecraft:crafting_shaped",
  "pattern": [
    " F ",
    "B B",
    "ROR"
  ],
  "key": {
    "F": {
      "item": "minecraft:furnace"
    },
    "B": {
      "item": "minecraft:iron_block"
    },
    "R": {
      "item": "minecraft:redstone"
    },
    "O": {
      "item": "minecraft:copper_block"
    }
  },
  "result": {
    "item": "autoworkstations:iron_auto_furnace",
    "count": 1
  }
}
