{
	"credit": "Made with Blockbench",
	"textures": {
		"0": "autoworkstations:block/gold_auto_experience_orb_vacuum",
		"1": "autoworkstations:block/gold_auto_experience_orb_vacuum_bottom",
		"2": "autoworkstations:block/gold_auto_experience_orb_vacuum_meter",
		"8": "autoworkstations:block/gold_auto_experience_orb_vacuum_wheel",
		"particle": "autoworkstations:block/gold_auto_experience_orb_vacuum"
	},
	"elements": [
		{
			"from": [0, 0, 0],
			"to": [16, 2, 16],
			"faces": {
				"north": {"uv": [0, 14, 16, 16], "texture": "#0"},
				"east": {"uv": [0, 14, 16, 16], "texture": "#0"},
				"south": {"uv": [0, 14, 16, 16], "texture": "#0"},
				"west": {"uv": [0, 14, 16, 16], "texture": "#0"},
				"up": {"uv": [0, 0, 16, 16], "texture": "#1"},
				"down": {"uv": [0, 0, 16, 16], "texture": "#1"}
			}
		},
		{
			"from": [5, 2, 5],
			"to": [11, 4, 11],
			"faces": {
				"north": {"uv": [5, 12, 11, 14], "texture": "#0"},
				"east": {"uv": [5, 12, 11, 14], "texture": "#0"},
				"south": {"uv": [5, 12, 11, 14], "texture": "#0"},
				"west": {"uv": [5, 12, 11, 14], "texture": "#0"},
				"up": {"uv": [5, 0, 11, 6], "texture": "#0"},
				"down": {"uv": [5, 0, 11, 6], "texture": "#0"}
			}
		},
		{
			"from": [2, 4, 2],
			"to": [14, 16, 14],
			"faces": {
				"north": {"uv": [2, 0, 14, 12], "texture": "#2"},
				"east": {"uv": [2, 0, 14, 12], "texture": "#0"},
				"south": {"uv": [2, 0, 14, 12], "texture": "#0"},
				"west": {"uv": [2, 0, 14, 12], "texture": "#0"},
				"up": {"uv": [0, 0, 16, 16], "texture": "#8"},
				"down": {"uv": [3, 2, 15, 14], "texture": "#1"}
			}
		}
	],
	"display": {
		"thirdperson_righthand": {
			"scale": [0.5, 0.5, 0.5]
		},
		"thirdperson_lefthand": {
			"scale": [0.5, 0.5, 1]
		},
		"firstperson_righthand": {
			"scale": [0.5, 0.5, 0.5]
		},
		"firstperson_lefthand": {
			"scale": [0.5, 0.5, 0.5]
		},
		"ground": {
			"scale": [0.4, 0.4, 0.4]
		},
		"fixed": {
			"scale": [0.5, 0.5, 0.5]
		}
	},
	"groups": [
		{
			"name": "group",
			"origin": [0, 0, 0],
			"color": 0,
			"children": [0, 1, 2]
		}
	]
}
